{
  "project_info": {
    "project_id": "clientgcmdemo-5b979",
    "project_number": "697361595086",
    "name": "Clientgcmdemo"
  },
  "client": [
    {
      "client_info": {
        "mobilesdk_app_id": "1:697361595086:android:bdf1534027f76bed",
        "client_id": "android:com.neel.www.clientgcmdemo",
        "client_type": 1,
        "android_client_info": {
          "package_name": "com.neel.www.clientgcmdemo"
        }
      },
      "oauth_client": [],
      "api_key": [],
      "services": {
        "analytics_service": {
          "status": 1
        },
        "cloud_messaging_service": {
          "status": 2,
          "apns_config": []
        },
        "appinvite_service": {
          "status": 1,
          "other_platform_oauth_client": []
        },
        "google_signin_service": {
          "status": 1
        },
        "ads_service": {
          "status": 1
        }
      }
    }
  ],
  "client_info": [],
  "ARTIFACT_VERSION": "1"
}